<svg width="20" height="20" viewBox="0 0 20 20" fill="none" xmlns="http://www.w3.org/2000/svg">
<path fill-rule="evenodd" clip-rule="evenodd" d="M4.96147 11.4302L0.353245 9.75109C-0.114803 9.57986 -0.11887 8.93477 0.347846 8.75905L19.2601 1.63645C19.661 1.48507 20.0747 1.82799 19.9874 2.23904L16.5935 18.1769C16.5135 18.5532 16.0616 18.7239 15.7426 18.4975L11.1096 15.2137C10.8282 15.0143 10.4447 15.025 10.1754 15.2392L7.6067 17.2835C7.30851 17.5215 6.85926 17.3889 6.74513 17.0303L4.96147 11.4302ZM15.4634 5.12115L6.45719 10.5363C6.112 10.7443 5.94948 11.1512 6.06101 11.5322L7.03477 14.8724C7.1039 15.1091 7.45582 15.0848 7.48935 14.8403L7.74254 13.0085C7.79027 12.6637 7.9588 12.3459 8.22006 12.1085L15.6528 5.36364C15.7918 5.23778 15.6252 5.02412 15.4634 5.12115Z" fill="#009595"/>
<rect width="0.001" height="0.001" fill="#009595"/>
<rect x="19.9993" y="19.9993" width="0.001" height="0.001" fill="#009595"/>
</svg>
